{ "totalCount_str": "177895", "pageCount": 18, "items": [ { "buy": false, "issued": "2016-04-02T01:40:43", "price": 3000, "volumeEntered": 833, "stationID": 60006484, "volume": 833, "range": "region", "minVolume": 1, "duration": 365, "type": 366699, "id": 4020240384 }, { "buy": false, "issued": "2016-04-02T01:50:24", "price": 3000, "volumeEntered": 833, "stationID": 60006487, "volume": 833, "range": "region", "minVolume": 1, "duration": 365, "type": 366699, "id": 4020240385 } ], "next": { "href": "https://api-sisi.testeveonline.com/market/10000001/orders/all/?page=2" }, "totalCount": 177895, "pageCount_str": "18" }
